%YAML 1.1
%TAG !u! tag:unity3d.com,2011:
--- !u!1001 &4620271066701725279
PrefabInstance:
  m_ObjectHideFlags: 0
  serializedVersion: 2
  m_Modification:
    m_TransformParent: {fileID: 0}
    m_Modifications:
    - target: {fileID: -8679921383154817045, guid: 190e51382143b97418428dfb88302318, type: 3}
      propertyPath: m_RootOrder
      value: 0
      objectReference: {fileID: 0}
    - target: {fileID: -8679921383154817045, guid: 190e51382143b97418428dfb88302318, type: 3}
      propertyPath: m_LocalPosition.x
      value: -6.3263154
      objectReference: {fileID: 0}
    - target: {fileID: -8679921383154817045, guid: 190e51382143b97418428dfb88302318, type: 3}
      propertyPath: m_LocalPosition.y
      value: -1.2291856
      objectReference: {fileID: 0}
    - target: {fileID: -8679921383154817045, guid: 190e51382143b97418428dfb88302318, type: 3}
      propertyPath: m_LocalPosition.z
      value: -0.25429916
      objectReference: {fileID: 0}
    - target: {fileID: -8679921383154817045, guid: 190e51382143b97418428dfb88302318, type: 3}
      propertyPath: m_LocalRotation.w
      value: 1
      objectReference: {fileID: 0}
    - target: {fileID: -8679921383154817045, guid: 190e51382143b97418428dfb88302318, type: 3}
      propertyPath: m_LocalRotation.x
      value: 0
      objectReference: {fileID: 0}
    - target: {fileID: -8679921383154817045, guid: 190e51382143b97418428dfb88302318, type: 3}
      propertyPath: m_LocalRotation.y
      value: 0
      objectReference: {fileID: 0}
    - target: {fileID: -8679921383154817045, guid: 190e51382143b97418428dfb88302318, type: 3}
      propertyPath: m_LocalRotation.z
      value: 0
      objectReference: {fileID: 0}
    - target: {fileID: -8679921383154817045, guid: 190e51382143b97418428dfb88302318, type: 3}
      propertyPath: m_LocalEulerAnglesHint.x
      value: 0
      objectReference: {fileID: 0}
    - target: {fileID: -8679921383154817045, guid: 190e51382143b97418428dfb88302318, type: 3}
      propertyPath: m_LocalEulerAnglesHint.y
      value: 0
      objectReference: {fileID: 0}
    - target: {fileID: -8679921383154817045, guid: 190e51382143b97418428dfb88302318, type: 3}
      propertyPath: m_LocalEulerAnglesHint.z
      value: 0
      objectReference: {fileID: 0}
    - target: {fileID: -7511558181221131132, guid: 190e51382143b97418428dfb88302318, type: 3}
      propertyPath: m_Materials.Array.data[0]
      value: 
      objectReference: {fileID: 2100000, guid: bb97f6a482c3f445abe0d9daa718b8df, type: 2}
    - target: {fileID: 919132149155446097, guid: 190e51382143b97418428dfb88302318, type: 3}
      propertyPath: m_Name
      value: DisposalCoffeCupOpen1 (23)
      objectReference: {fileID: 0}
    m_RemovedComponents: []
  m_SourcePrefab: {fileID: 100100000, guid: 190e51382143b97418428dfb88302318, type: 3}
