%YAML 1.1
%TAG !u! tag:unity3d.com,2011:
--- !u!1 &6630825502091227898
GameObject:
  m_ObjectHideFlags: 0
  m_CorrespondingSourceObject: {fileID: 0}
  m_PrefabInstance: {fileID: 0}
  m_PrefabAsset: {fileID: 0}
  serializedVersion: 6
  m_Component:
  - component: {fileID: 3368851762516920150}
  m_Layer: 0
  m_Name: ShelfBig
  m_TagString: Untagged
  m_Icon: {fileID: 0}
  m_NavMeshLayer: 0
  m_StaticEditorFlags: 0
  m_IsActive: 1
--- !u!4 &3368851762516920150
Transform:
  m_ObjectHideFlags: 0
  m_CorrespondingSourceObject: {fileID: 0}
  m_PrefabInstance: {fileID: 0}
  m_PrefabAsset: {fileID: 0}
  m_GameObject: {fileID: 6630825502091227898}
  m_LocalRotation: {x: 0, y: 0, z: 0, w: 1}
  m_LocalPosition: {x: -12.95, y: 0.83, z: 9.26}
  m_LocalScale: {x: 1, y: 1, z: 1}
  m_Children:
  - {fileID: 2997658333764715429}
  m_Father: {fileID: 0}
  m_RootOrder: 0
  m_LocalEulerAnglesHint: {x: 0, y: 0, z: 0}
--- !u!1001 &3320115144892376142
PrefabInstance:
  m_ObjectHideFlags: 0
  serializedVersion: 2
  m_Modification:
    m_TransformParent: {fileID: 3368851762516920150}
    m_Modifications:
    - target: {fileID: -8679921383154817045, guid: be21b02f477949e459cbe5d3ca933995, type: 3}
      propertyPath: m_RootOrder
      value: 0
      objectReference: {fileID: 0}
    - target: {fileID: -8679921383154817045, guid: be21b02f477949e459cbe5d3ca933995, type: 3}
      propertyPath: m_LocalPosition.x
      value: 0
      objectReference: {fileID: 0}
    - target: {fileID: -8679921383154817045, guid: be21b02f477949e459cbe5d3ca933995, type: 3}
      propertyPath: m_LocalPosition.y
      value: 0
      objectReference: {fileID: 0}
    - target: {fileID: -8679921383154817045, guid: be21b02f477949e459cbe5d3ca933995, type: 3}
      propertyPath: m_LocalPosition.z
      value: 0
      objectReference: {fileID: 0}
    - target: {fileID: -8679921383154817045, guid: be21b02f477949e459cbe5d3ca933995, type: 3}
      propertyPath: m_LocalRotation.w
      value: 1
      objectReference: {fileID: 0}
    - target: {fileID: -8679921383154817045, guid: be21b02f477949e459cbe5d3ca933995, type: 3}
      propertyPath: m_LocalRotation.x
      value: -0
      objectReference: {fileID: 0}
    - target: {fileID: -8679921383154817045, guid: be21b02f477949e459cbe5d3ca933995, type: 3}
      propertyPath: m_LocalRotation.y
      value: -0
      objectReference: {fileID: 0}
    - target: {fileID: -8679921383154817045, guid: be21b02f477949e459cbe5d3ca933995, type: 3}
      propertyPath: m_LocalRotation.z
      value: -0
      objectReference: {fileID: 0}
    - target: {fileID: -8679921383154817045, guid: be21b02f477949e459cbe5d3ca933995, type: 3}
      propertyPath: m_LocalEulerAnglesHint.x
      value: 0
      objectReference: {fileID: 0}
    - target: {fileID: -8679921383154817045, guid: be21b02f477949e459cbe5d3ca933995, type: 3}
      propertyPath: m_LocalEulerAnglesHint.y
      value: 0
      objectReference: {fileID: 0}
    - target: {fileID: -8679921383154817045, guid: be21b02f477949e459cbe5d3ca933995, type: 3}
      propertyPath: m_LocalEulerAnglesHint.z
      value: 0
      objectReference: {fileID: 0}
    - target: {fileID: -7635826562936255635, guid: be21b02f477949e459cbe5d3ca933995, type: 3}
      propertyPath: m_Materials.Array.data[0]
      value: 
      objectReference: {fileID: 2100000, guid: 6455d552483e7a842925f5dc35abc773, type: 2}
    - target: {fileID: 919132149155446097, guid: be21b02f477949e459cbe5d3ca933995, type: 3}
      propertyPath: m_Name
      value: scene1_1
      objectReference: {fileID: 0}
    - target: {fileID: 1151388028547126963, guid: be21b02f477949e459cbe5d3ca933995, type: 3}
      propertyPath: m_LocalPosition.x
      value: -1.27
      objectReference: {fileID: 0}
    - target: {fileID: 1151388028547126963, guid: be21b02f477949e459cbe5d3ca933995, type: 3}
      propertyPath: m_LocalPosition.y
      value: -0.82
      objectReference: {fileID: 0}
    - target: {fileID: 1151388028547126963, guid: be21b02f477949e459cbe5d3ca933995, type: 3}
      propertyPath: m_LocalPosition.z
      value: -0.86
      objectReference: {fileID: 0}
    m_RemovedComponents: []
  m_SourcePrefab: {fileID: 100100000, guid: be21b02f477949e459cbe5d3ca933995, type: 3}
--- !u!4 &2997658333764715429 stripped
Transform:
  m_CorrespondingSourceObject: {fileID: -8679921383154817045, guid: be21b02f477949e459cbe5d3ca933995, type: 3}
  m_PrefabInstance: {fileID: 3320115144892376142}
  m_PrefabAsset: {fileID: 0}
