# Blender v2.93.4 OBJ File: ''
# www.blender.org
mtllib SM_Chairs_B3.mtl
o SM_Chairs_B3
v 1.483490 1.538646 0.389105
v 1.561491 1.544345 0.386628
v 1.107029 1.502838 0.164668
v 1.639557 1.548386 0.347887
v 1.967123 1.433717 -0.019014
v 1.677848 1.433717 0.451195
v 1.958184 1.428094 -0.127155
v 1.577294 1.428094 0.491974
v 1.472986 1.420129 0.487763
v 0.833482 1.938115 0.059067
v 0.831290 2.023996 0.002972
v 0.981254 1.405797 0.159453
v 0.854318 2.084631 -0.076579
v 1.264101 2.013857 -0.454042
v 1.215235 2.057428 -0.404879
v 1.303709 1.952416 -0.475749
v 0.994422 2.057428 -0.045952
v 1.000227 1.445572 0.197109
v 1.005511 1.374651 0.200360
v 1.467703 1.491050 0.484513
v 1.572006 1.499014 0.488721
v 1.672565 1.504639 0.447944
v 1.961839 1.504639 -0.022265
v 1.952896 1.499015 -0.130408
v 1.907396 1.420130 -0.218359
v 1.902112 1.491050 -0.221610
v 1.857647 1.548386 -0.006613
v 1.857028 1.544345 -0.093762
v 1.434805 1.445572 -0.509287
v 1.454003 1.502838 -0.399330
v 1.440088 1.374652 -0.506036
v 1.824071 1.538646 -0.164501
v 1.515439 1.569387 0.481990
v 1.640234 1.013642 0.558765
v 1.597877 0.999980 0.532706
v 1.476762 1.543563 0.458195
v 1.453639 1.659684 0.443970
v 1.428781 1.613666 0.428678
v 0.931918 1.692005 0.123006
v 0.923603 1.641362 0.117890
v 1.461828 1.569387 0.569132
v 1.586624 1.013642 0.645907
v 1.400028 1.659684 0.531112
v 0.878308 1.692005 0.210148
v 1.423151 1.543563 0.545337
v 1.544267 0.999980 0.619848
v 1.375171 1.613666 0.515820
v 0.869993 1.641362 0.205032
v 0.953285 1.569387 0.244505
v 0.843534 1.013642 0.176986
v 0.885891 0.999980 0.203045
v 0.991960 1.543563 0.268299
v 1.036272 1.673981 0.295560
v 1.061127 1.627962 0.310851
v 1.000189 1.569387 0.168264
v 0.890438 1.013642 0.100744
v 1.083176 1.673982 0.219318
v 1.038864 1.543563 0.192057
v 0.932796 0.999980 0.126803
v 1.108032 1.627962 0.234609
v 1.236410 1.938115 -0.595882
v 1.392640 1.405797 -0.509245
v 1.124728 2.084631 -0.516125
v 1.185352 2.023996 -0.572546
v 1.449620 1.430146 -0.474192
v 1.293390 1.962465 -0.560828
v 1.242332 2.048347 -0.537492
v 1.181709 2.108979 -0.481070
v 1.427293 1.529035 -0.408452
v 0.911298 2.108979 -0.041524
v 0.888270 2.048347 0.038027
v 0.972573 2.013857 0.019830
v 0.890460 1.962463 0.094121
v 1.038234 1.430146 0.194507
v 0.971055 1.952416 0.064972
v 1.086844 1.529034 0.144939
v 1.975112 1.569387 -0.265198
v 2.099907 1.013642 -0.188423
v 2.057550 0.999980 -0.214481
v 1.936435 1.543563 -0.288992
v 1.913311 1.659685 -0.303217
v 1.888454 1.613666 -0.318510
v 1.391591 1.692005 -0.624182
v 1.383276 1.641362 -0.629298
v 1.921501 1.569387 -0.178055
v 2.046297 1.013642 -0.101280
v 1.859701 1.659685 -0.216075
v 1.337981 1.692005 -0.537040
v 1.882824 1.543563 -0.201850
v 2.003939 0.999980 -0.127339
v 1.834844 1.613666 -0.231367
v 1.329665 1.641362 -0.542155
v 1.414273 1.569388 -0.504819
v 1.304521 1.013642 -0.572338
v 1.346879 0.999980 -0.546280
v 1.452947 1.543563 -0.481026
v 1.497260 1.673982 -0.453765
v 1.522115 1.627962 -0.438473
v 1.458037 1.569388 -0.575956
v 1.348285 1.013642 -0.643476
v 1.541024 1.673982 -0.524902
v 1.496712 1.543563 -0.552163
v 1.390643 0.999980 -0.617417
v 1.565879 1.627962 -0.509611
vt 0.190806 0.036584
vt 0.214507 0.052194
vt 0.031373 0.034362
vt 0.231314 0.079033
vt 0.268130 0.254833
vt 0.268130 0.054343
vt 0.291477 0.286581
vt 0.291477 0.022595
vt 0.324548 0.004048
vt 0.327582 0.595269
vt 0.294888 0.578319
vt 0.529258 0.598287
vt 0.271805 0.549319
vt 0.045194 0.556749
vt 0.028426 0.532246
vt 0.068840 0.570998
vt 0.028426 0.379205
vt 0.598205 0.944519
vt 0.572365 0.944463
vt 0.571711 0.744562
vt 0.597551 0.744617
vt 0.572365 0.710889
vt 0.598205 0.710947
vt 0.003990 0.003990
vt 0.203634 0.004056
vt 0.236760 0.022604
vt 0.827691 0.236266
vt 0.831659 0.267982
vt 0.806178 0.267976
vt 0.802210 0.236260
vt 0.260150 0.054354
vt 0.827691 0.035777
vt 0.802210 0.035771
vt 0.831659 0.003996
vt 0.806178 0.003990
vt 0.563731 0.944462
vt 0.537891 0.944519
vt 0.537238 0.910847
vt 0.563078 0.910791
vt 0.260150 0.254843
vt 0.231314 0.230186
vt 0.236760 0.286590
vt 0.214507 0.257024
vt 0.003990 0.305186
vt 0.031373 0.274842
vt 0.537892 0.710945
vt 0.563731 0.710889
vt 0.029743 0.606268
vt 0.029743 0.907462
vt 0.003990 0.907469
vt 0.003990 0.606274
vt 0.190807 0.272632
vt 0.203634 0.305135
vt 0.523712 0.003990
vt 0.523712 0.305186
vt 0.324547 0.305128
vt 0.701408 0.481540
vt 0.824620 0.313166
vt 0.839831 0.324078
vt 0.719061 0.488453
vt 0.692524 0.522656
vt 0.712164 0.520374
vt 0.823324 0.702909
vt 0.839831 0.694089
vt 0.711898 0.212712
vt 0.711918 0.003990
vt 0.749074 0.003994
vt 0.749054 0.212716
vt 0.749074 0.251137
vt 0.711918 0.251133
vt 0.037723 0.828350
vt 0.037722 0.606268
vt 0.074879 0.606269
vt 0.074879 0.828351
vt 0.408488 0.820723
vt 0.529258 0.985098
vt 0.514047 0.996010
vt 0.390835 0.827635
vt 0.401591 0.788802
vt 0.381952 0.786520
vt 0.512751 0.606267
vt 0.529258 0.615087
vt 0.328802 0.838312
vt 0.291646 0.838327
vt 0.291612 0.634927
vt 0.328768 0.634912
vt 0.328802 0.606266
vt 0.291646 0.606281
vt 0.250231 0.816742
vt 0.213075 0.816742
vt 0.213075 0.606268
vt 0.250231 0.606268
vt 0.276855 0.651404
vt 0.276855 0.688560
vt 0.258211 0.688560
vt 0.258211 0.651404
vt 0.722645 0.265236
vt 0.722645 0.302392
vt 0.705158 0.302411
vt 0.705158 0.265256
vt 0.576743 0.210192
vt 0.595109 0.003990
vt 0.613815 0.004888
vt 0.595333 0.206408
vt 0.598542 0.257256
vt 0.613815 0.244677
vt 0.606185 0.901413
vt 0.606185 0.710889
vt 0.638693 0.710930
vt 0.638693 0.901453
vt 0.531692 0.265259
vt 0.564200 0.265236
vt 0.564200 0.301576
vt 0.531692 0.301599
vt 0.550281 0.054838
vt 0.568763 0.256358
vt 0.550057 0.257256
vt 0.531692 0.051054
vt 0.568763 0.016569
vt 0.553490 0.003990
vt 0.725033 0.890279
vt 0.692524 0.890303
vt 0.692525 0.710913
vt 0.725033 0.710889
vt 0.572180 0.299552
vt 0.572180 0.265236
vt 0.604689 0.265236
vt 0.604689 0.299553
vt 0.747566 0.265236
vt 0.747566 0.297745
vt 0.730625 0.297745
vt 0.730625 0.265236
vt 0.327582 0.316010
vt 0.529258 0.313166
vt 0.271805 0.361904
vt 0.294888 0.332928
vt 0.873327 0.004609
vt 0.899159 0.003990
vt 0.898904 0.207890
vt 0.873072 0.208510
vt 0.899159 0.241496
vt 0.873327 0.242115
vt 0.152507 0.822692
vt 0.159959 0.851665
vt 0.135446 0.851659
vt 0.127994 0.822687
vt 0.060376 0.595375
vt 0.027325 0.578445
vt 0.003990 0.549460
vt 0.263825 0.598288
vt 0.230522 0.573684
vt 0.152507 0.635277
vt 0.127995 0.635271
vt 0.003990 0.362045
vt 0.159959 0.606273
vt 0.135446 0.606268
vt 0.027325 0.333053
vt 0.045194 0.354698
vt 0.907139 0.037596
vt 0.907392 0.003990
vt 0.933225 0.004609
vt 0.932970 0.038215
vt 0.933225 0.242115
vt 0.907393 0.241496
vt 0.060376 0.316115
vt 0.068840 0.340443
vt 0.263825 0.313166
vt 0.230522 0.337728
vt 0.865092 0.003990
vt 0.865092 0.289112
vt 0.839639 0.289112
vt 0.839640 0.003990
vt 0.856695 0.481540
vt 0.979907 0.313166
vt 0.995118 0.324077
vt 0.874347 0.488453
vt 0.847811 0.522656
vt 0.867451 0.520374
vt 0.978610 0.702909
vt 0.995118 0.694089
vt 0.757054 0.212712
vt 0.757074 0.003990
vt 0.794230 0.003994
vt 0.794211 0.212716
vt 0.794230 0.251137
vt 0.757074 0.251133
vt 0.120014 0.606270
vt 0.120014 0.828352
vt 0.082859 0.828350
vt 0.082858 0.606268
vt 0.563774 0.527622
vt 0.684545 0.691997
vt 0.669333 0.702910
vt 0.546122 0.534535
vt 0.556878 0.495701
vt 0.537238 0.493419
vt 0.668037 0.313166
vt 0.684545 0.321986
vt 0.373972 0.838312
vt 0.336816 0.838327
vt 0.336782 0.634927
vt 0.373938 0.634912
vt 0.373972 0.606267
vt 0.336816 0.606281
vt 0.167939 0.606268
vt 0.205095 0.606268
vt 0.205095 0.816742
vt 0.167939 0.816742
vt 0.276855 0.606268
vt 0.276856 0.643424
vt 0.258211 0.643424
vt 0.258211 0.606268
vt 0.276855 0.696540
vt 0.276855 0.733696
vt 0.259368 0.733715
vt 0.259368 0.696559
vt 0.621795 0.210192
vt 0.640160 0.003990
vt 0.658866 0.004888
vt 0.640384 0.206408
vt 0.643593 0.257256
vt 0.658866 0.244677
vt 0.646673 0.901413
vt 0.646673 0.710889
vt 0.677005 0.710927
vt 0.677005 0.901451
vt 0.666846 0.265257
vt 0.697178 0.265236
vt 0.697178 0.301576
vt 0.666846 0.301598
vt 0.685436 0.054838
vt 0.703918 0.256358
vt 0.685211 0.257256
vt 0.666846 0.051054
vt 0.703918 0.016569
vt 0.688644 0.003990
vt 0.763345 0.890279
vt 0.733013 0.890301
vt 0.733013 0.710912
vt 0.763345 0.710889
vt 0.628535 0.299553
vt 0.628535 0.265236
vt 0.658867 0.265236
vt 0.658867 0.299553
vt 0.259368 0.772027
vt 0.259368 0.741695
vt 0.276309 0.741695
vt 0.276309 0.772027
vn -0.1607 0.9493 0.2700
vn -0.0203 0.9829 0.1831
vn -0.2244 0.9745 -0.0049
vn 0.0668 0.9928 0.0997
vn 0.0742 -0.9962 0.0457
vn 0.0742 -0.9962 0.0456
vn 0.0729 -0.9963 0.0448
vn -0.8337 -0.3167 -0.4523
vn -0.8254 -0.3183 -0.4663
vn -0.8189 -0.3192 -0.4770
vn -0.8069 -0.3286 -0.4908
vn 0.8228 0.5325 0.1987
vn 0.7398 0.5602 0.3726
vn 0.8792 0.3810 0.2860
vn 0.6998 0.5106 0.4996
vn -0.8084 0.5695 0.1485
vn -0.9704 -0.0616 0.2333
vn -0.2927 0.0220 0.9559
vn -0.2889 0.5376 0.7922
vn 0.1678 0.0576 0.9841
vn 0.1089 0.5723 0.8128
vn 0.5224 0.5846 0.6208
vn 0.6422 0.0828 0.7621
vn 0.7879 0.5882 0.1823
vn 0.9698 0.0828 0.2296
vn 0.7744 0.5748 -0.2644
vn 0.9541 0.0577 -0.2940
vn 0.7209 0.0220 -0.6926
vn 0.5787 0.5340 -0.6164
vn 0.2516 0.9666 0.0493
vn 0.2334 0.9660 -0.1109
vn -0.2304 0.5659 -0.7916
vn -0.1370 0.9453 -0.2961
vn -0.2292 -0.0616 -0.9714
vn 0.1042 0.9733 -0.2046
vn 0.0703 -0.9966 0.0433
vn 0.0722 -0.9964 0.0444
vn 0.5240 0.0000 -0.8517
vn 0.7604 0.4505 0.4678
vn 0.8236 0.2549 0.5067
vn 0.3882 0.8901 0.2389
vn 0.0449 0.9986 0.0276
vn -0.5240 -0.0000 0.8517
vn -0.8240 -0.2531 -0.5069
vn -0.7608 -0.4497 -0.4680
vn -0.3859 -0.8914 -0.2374
vn -0.0397 -0.9989 -0.0244
vn 0.2256 -0.9643 0.1388
vn -0.8363 0.1893 -0.5145
vn -0.7519 0.4697 -0.4626
vn -0.8297 0.2259 -0.5104
vn -0.6232 0.6816 -0.3834
vn 0.8302 -0.2233 0.5108
vn 0.7492 -0.4756 0.4609
vn 0.6138 -0.6934 0.3776
vn 0.6137 -0.6934 0.3776
vn -0.2256 -0.9643 -0.1388
vn -0.8030 -0.3315 -0.4954
vn -0.8076 -0.3179 -0.4968
vn -0.8004 -0.3420 -0.4924
vn -0.8003 -0.3420 -0.4924
vn 0.9513 -0.2958 -0.0868
vn 0.5776 -0.6597 -0.4808
vn 0.4385 0.2262 -0.8698
vn 0.7722 0.3601 -0.5235
vn 0.2235 0.5919 -0.7744
vn 0.5956 0.6832 -0.4225
vn 0.3174 0.9394 -0.1294
vn -0.0999 0.8859 -0.4529
vn 0.9300 0.1528 0.3342
vn 0.0305 0.9375 0.3468
vn -0.4493 0.8859 0.1150
vn -0.1072 0.6900 0.7158
vn -0.5905 0.5919 0.5487
vn 0.5621 0.5372 0.6289
vn -0.1224 0.3552 0.9267
vn -0.5787 0.2261 0.7836
vn -0.1687 -0.6597 0.7324
vn 0.3515 -0.2958 0.8882
vn 0.5466 0.3898 0.7411
vn 0.7514 0.1979 0.6294
vn 0.3882 0.8901 0.2388
usemtl T_Generic_Colors_01
s 1
f 1/1/1 2/2/2 3/3/3
f 4/4/4 3/3/3 2/2/2
f 5/5/5 6/6/5 7/7/5
f 8/8/6 9/9/7 6/6/5
f 10/10/8 11/11/9 12/12/10
f 13/13/11 12/12/10 11/11/9
f 14/14/12 15/15/13 16/16/14
f 17/17/15 16/16/14 15/15/13
f 18/18/16 19/19/17 9/20/18
f 9/20/18 20/21/19 18/18/16
f 20/21/19 9/20/18 8/22/20
f 8/22/20 21/23/21 20/21/19
f 18/24/16 20/25/19 1/1/1
f 1/1/1 3/3/3 18/24/16
f 1/1/1 20/25/19 21/26/21
f 21/26/21 2/2/2 1/1/1
f 22/27/22 21/28/21 8/29/20
f 8/29/20 6/30/23 22/27/22
f 2/2/2 21/26/21 22/31/22
f 22/31/22 4/4/4 2/2/2
f 23/32/24 22/27/22 6/30/23
f 6/30/23 5/33/25 23/32/24
f 24/34/26 23/32/24 5/33/25
f 5/33/25 7/35/27 24/34/26
f 24/36/26 7/37/27 25/38/28
f 25/38/28 26/39/29 24/36/26
f 4/4/4 22/31/22 23/40/24
f 23/40/24 27/41/30 4/4/4
f 27/41/30 23/40/24 24/42/26
f 24/42/26 28/43/31 27/41/30
f 29/44/32 18/24/16 3/3/3
f 3/3/3 30/45/33 29/44/32
f 25/38/28 31/46/34 29/47/32
f 29/47/32 26/39/29 25/38/28
f 18/48/16 29/49/32 31/50/34
f 31/50/34 19/51/17 18/48/16
f 30/45/33 3/3/3 4/4/4
f 4/4/4 32/52/35 30/45/33
f 26/53/29 29/44/32 30/45/33
f 30/45/33 32/52/35 26/53/29
f 32/52/35 4/4/4 27/41/30
f 27/41/30 28/43/31 32/52/35
f 24/42/26 26/53/29 32/52/35
f 32/52/35 28/43/31 24/42/26
f 9/9/7 19/54/36 31/55/36
f 31/55/36 25/56/37 9/9/7
f 6/6/5 9/9/7 25/56/37
f 25/56/37 7/7/5 6/6/5
f 33/57/38 34/58/38 35/59/38
f 35/59/38 36/60/38 33/57/38
f 37/61/38 33/57/38 36/60/38
f 36/60/38 38/62/38 37/61/38
f 39/63/38 37/61/38 38/62/38
f 38/62/38 40/64/38 39/63/38
f 41/65/39 42/66/40 34/67/40
f 34/67/40 33/68/39 41/65/39
f 41/65/39 33/68/39 37/69/41
f 37/69/41 43/70/41 41/65/39
f 44/71/42 43/72/41 37/73/41
f 37/73/41 39/74/42 44/71/42
f 45/75/43 46/76/43 42/77/43
f 42/77/43 41/78/43 45/75/43
f 47/79/43 45/75/43 41/78/43
f 41/78/43 43/80/43 47/79/43
f 47/79/43 43/80/43 44/81/43
f 44/81/43 48/82/43 47/79/43
f 35/83/44 46/84/44 45/85/45
f 45/85/45 36/86/45 35/83/44
f 38/87/46 36/86/45 45/85/45
f 45/85/45 47/88/46 38/87/46
f 38/89/46 47/90/46 48/91/47
f 48/91/47 40/92/47 38/89/46
f 34/93/48 42/94/48 46/95/48
f 46/95/48 35/96/48 34/93/48
f 44/97/49 39/98/49 40/99/49
f 40/99/49 48/100/49 44/97/49
f 49/101/43 50/102/43 51/103/43
f 51/103/43 52/104/43 49/101/43
f 53/105/43 49/101/43 52/104/43
f 52/104/43 54/106/43 53/105/43
f 55/107/50 56/108/51 50/109/51
f 50/109/51 49/110/50 55/107/50
f 55/111/50 49/112/50 53/113/52
f 53/113/52 57/114/52 55/111/50
f 58/115/38 59/116/38 56/117/38
f 56/117/38 55/118/38 58/115/38
f 60/119/38 58/115/38 55/118/38
f 55/118/38 57/120/38 60/119/38
f 51/121/53 59/122/53 58/123/54
f 58/123/54 52/124/54 51/121/53
f 54/125/55 52/126/54 58/127/54
f 58/127/54 60/128/56 54/125/56
f 50/129/57 56/130/57 59/131/57
f 59/131/57 51/132/57 50/129/57
f 12/12/10 13/13/11 61/133/58
f 61/133/58 62/134/59 12/12/10
f 61/133/58 13/13/11 63/135/60
f 63/135/60 64/136/61 61/133/58
f 65/137/62 62/138/63 61/139/64
f 61/139/64 66/140/65 65/137/62
f 66/140/65 61/139/64 64/141/66
f 64/141/66 67/142/67 66/140/65
f 68/143/68 67/144/67 64/145/66
f 64/145/66 63/146/69 68/143/68
f 66/147/65 67/148/67 14/14/12
f 14/14/12 16/16/14 66/147/65
f 14/14/12 67/148/67 68/149/68
f 68/149/68 15/15/13 14/14/12
f 65/150/62 66/147/65 16/16/14
f 16/16/14 69/151/70 65/150/62
f 70/152/71 68/143/68 63/146/69
f 63/146/69 13/153/72 70/152/71
f 17/17/15 15/15/13 68/149/68
f 68/149/68 70/154/71 17/17/15
f 71/155/73 70/152/71 13/153/72
f 13/153/72 11/156/74 71/155/73
f 17/17/15 70/154/71 71/157/73
f 71/157/73 72/158/75 17/17/15
f 73/159/76 71/160/73 11/161/74
f 11/161/74 10/162/77 73/159/76
f 73/159/76 10/162/77 12/163/78
f 12/163/78 74/164/79 73/159/76
f 71/157/73 73/165/76 75/166/80
f 75/166/80 72/158/75 71/157/73
f 75/166/80 73/165/76 74/167/79
f 74/167/79 76/168/81 75/166/80
f 76/168/81 17/17/15 72/158/75
f 72/158/75 75/166/80 76/168/81
f 16/16/14 17/17/15 76/168/81
f 76/168/81 69/151/70 16/16/14
f 69/151/70 76/168/81 74/167/79
f 74/167/79 65/150/62 69/151/70
f 65/169/62 74/170/79 12/171/78
f 12/171/78 62/172/63 65/169/62
f 77/173/38 78/174/38 79/175/38
f 79/175/38 80/176/38 77/173/38
f 81/177/38 77/173/38 80/176/38
f 80/176/38 82/178/38 81/177/38
f 83/179/38 81/177/38 82/178/38
f 82/178/38 84/180/38 83/179/38
f 85/181/39 86/182/40 78/183/40
f 78/183/40 77/184/39 85/181/39
f 85/181/39 77/184/39 81/185/82
f 81/185/82 87/186/82 85/181/39
f 88/187/42 87/188/82 81/189/82
f 81/189/82 83/190/42 88/187/42
f 89/191/43 90/192/43 86/193/43
f 86/193/43 85/194/43 89/191/43
f 91/195/43 89/191/43 85/194/43
f 85/194/43 87/196/43 91/195/43
f 91/195/43 87/196/43 88/197/43
f 88/197/43 92/198/43 91/195/43
f 79/199/44 90/200/44 89/201/45
f 89/201/45 80/202/45 79/199/44
f 82/203/46 80/202/45 89/201/45
f 89/201/45 91/204/46 82/203/46
f 82/205/46 91/206/46 92/207/47
f 92/207/47 84/208/47 82/205/46
f 78/209/48 86/210/48 90/211/48
f 90/211/48 79/212/48 78/209/48
f 88/213/49 83/214/49 84/215/49
f 84/215/49 92/216/49 88/213/49
f 93/217/43 94/218/43 95/219/43
f 95/219/43 96/220/43 93/217/43
f 97/221/43 93/217/43 96/220/43
f 96/220/43 98/222/43 97/221/43
f 99/223/50 100/224/51 94/225/51
f 94/225/51 93/226/50 99/223/50
f 99/227/50 93/228/50 97/229/52
f 97/229/52 101/230/52 99/227/50
f 102/231/38 103/232/38 100/233/38
f 100/233/38 99/234/38 102/231/38
f 104/235/38 102/231/38 99/234/38
f 99/234/38 101/236/38 104/235/38
f 95/237/53 103/238/53 102/239/54
f 102/239/54 96/240/54 95/237/53
f 98/241/56 96/242/54 102/243/54
f 102/243/54 104/244/55 98/241/55
f 94/245/57 100/246/57 103/247/57
f 103/247/57 95/248/57 94/245/57
