%YAML 1.1
%TAG !u! tag:unity3d.com,2011:
--- !u!1 &8239680737575544142
GameObject:
  m_ObjectHideFlags: 0
  m_CorrespondingSourceObject: {fileID: 0}
  m_PrefabInstance: {fileID: 0}
  m_PrefabAsset: {fileID: 0}
  serializedVersion: 6
  m_Component:
  - component: {fileID: 2171043399102606355}
  m_Layer: 0
  m_Name: SM_Chair
  m_TagString: Untagged
  m_Icon: {fileID: 0}
  m_NavMeshLayer: 0
  m_StaticEditorFlags: 0
  m_IsActive: 1
--- !u!4 &2171043399102606355
Transform:
  m_ObjectHideFlags: 0
  m_CorrespondingSourceObject: {fileID: 0}
  m_PrefabInstance: {fileID: 0}
  m_PrefabAsset: {fileID: 0}
  m_GameObject: {fileID: 8239680737575544142}
  m_LocalRotation: {x: 0, y: 0, z: 0, w: 1}
  m_LocalPosition: {x: -2.4555984, y: 0.5294795, z: 2.96}
  m_LocalScale: {x: 1, y: 1, z: 1}
  m_Children:
  - {fileID: 6949340699706630973}
  m_Father: {fileID: 0}
  m_RootOrder: 0
  m_LocalEulerAnglesHint: {x: 0, y: 0, z: 0}
--- !u!1001 &7120059609312725320
PrefabInstance:
  m_ObjectHideFlags: 0
  serializedVersion: 2
  m_Modification:
    m_TransformParent: {fileID: 2171043399102606355}
    m_Modifications:
    - target: {fileID: 197750403144395381, guid: 85e457107002b8a478489b635d9572c7, type: 3}
      propertyPath: m_RootOrder
      value: 0
      objectReference: {fileID: 0}
    - target: {fileID: 197750403144395381, guid: 85e457107002b8a478489b635d9572c7, type: 3}
      propertyPath: m_LocalPosition.x
      value: 1.51
      objectReference: {fileID: 0}
    - target: {fileID: 197750403144395381, guid: 85e457107002b8a478489b635d9572c7, type: 3}
      propertyPath: m_LocalPosition.y
      value: -1.5544795
      objectReference: {fileID: 0}
    - target: {fileID: 197750403144395381, guid: 85e457107002b8a478489b635d9572c7, type: 3}
      propertyPath: m_LocalPosition.z
      value: 0.04
      objectReference: {fileID: 0}
    - target: {fileID: 197750403144395381, guid: 85e457107002b8a478489b635d9572c7, type: 3}
      propertyPath: m_LocalRotation.w
      value: 1
      objectReference: {fileID: 0}
    - target: {fileID: 197750403144395381, guid: 85e457107002b8a478489b635d9572c7, type: 3}
      propertyPath: m_LocalRotation.x
      value: -0
      objectReference: {fileID: 0}
    - target: {fileID: 197750403144395381, guid: 85e457107002b8a478489b635d9572c7, type: 3}
      propertyPath: m_LocalRotation.y
      value: -0
      objectReference: {fileID: 0}
    - target: {fileID: 197750403144395381, guid: 85e457107002b8a478489b635d9572c7, type: 3}
      propertyPath: m_LocalRotation.z
      value: -0
      objectReference: {fileID: 0}
    - target: {fileID: 197750403144395381, guid: 85e457107002b8a478489b635d9572c7, type: 3}
      propertyPath: m_LocalEulerAnglesHint.x
      value: 0
      objectReference: {fileID: 0}
    - target: {fileID: 197750403144395381, guid: 85e457107002b8a478489b635d9572c7, type: 3}
      propertyPath: m_LocalEulerAnglesHint.y
      value: 0
      objectReference: {fileID: 0}
    - target: {fileID: 197750403144395381, guid: 85e457107002b8a478489b635d9572c7, type: 3}
      propertyPath: m_LocalEulerAnglesHint.z
      value: 0
      objectReference: {fileID: 0}
    - target: {fileID: 717581271197085903, guid: 85e457107002b8a478489b635d9572c7, type: 3}
      propertyPath: m_Name
      value: SM_Chairs_B3
      objectReference: {fileID: 0}
    m_RemovedComponents: []
  m_SourcePrefab: {fileID: 100100000, guid: 85e457107002b8a478489b635d9572c7, type: 3}
--- !u!4 &6949340699706630973 stripped
Transform:
  m_CorrespondingSourceObject: {fileID: 197750403144395381, guid: 85e457107002b8a478489b635d9572c7, type: 3}
  m_PrefabInstance: {fileID: 7120059609312725320}
  m_PrefabAsset: {fileID: 0}
