%YAML 1.1
%TAG !u! tag:unity3d.com,2011:
--- !u!1001 &7603461314225072374
PrefabInstance:
  m_ObjectHideFlags: 0
  serializedVersion: 2
  m_Modification:
    m_TransformParent: {fileID: 0}
    m_Modifications:
    - target: {fileID: -8679921383154817045, guid: 5f16a0101803e9a449bffac981e8edd6, type: 3}
      propertyPath: m_RootOrder
      value: 0
      objectReference: {fileID: 0}
    - target: {fileID: -8679921383154817045, guid: 5f16a0101803e9a449bffac981e8edd6, type: 3}
      propertyPath: m_LocalScale.x
      value: 1.2
      objectReference: {fileID: 0}
    - target: {fileID: -8679921383154817045, guid: 5f16a0101803e9a449bffac981e8edd6, type: 3}
      propertyPath: m_LocalScale.y
      value: 1.2
      objectReference: {fileID: 0}
    - target: {fileID: -8679921383154817045, guid: 5f16a0101803e9a449bffac981e8edd6, type: 3}
      propertyPath: m_LocalScale.z
      value: 1.2
      objectReference: {fileID: 0}
    - target: {fileID: -8679921383154817045, guid: 5f16a0101803e9a449bffac981e8edd6, type: 3}
      propertyPath: m_LocalPosition.x
      value: -7.3612404
      objectReference: {fileID: 0}
    - target: {fileID: -8679921383154817045, guid: 5f16a0101803e9a449bffac981e8edd6, type: 3}
      propertyPath: m_LocalPosition.y
      value: -9.327092
      objectReference: {fileID: 0}
    - target: {fileID: -8679921383154817045, guid: 5f16a0101803e9a449bffac981e8edd6, type: 3}
      propertyPath: m_LocalPosition.z
      value: -14.510559
      objectReference: {fileID: 0}
    - target: {fileID: -8679921383154817045, guid: 5f16a0101803e9a449bffac981e8edd6, type: 3}
      propertyPath: m_LocalRotation.w
      value: 0.7071068
      objectReference: {fileID: 0}
    - target: {fileID: -8679921383154817045, guid: 5f16a0101803e9a449bffac981e8edd6, type: 3}
      propertyPath: m_LocalRotation.x
      value: 0
      objectReference: {fileID: 0}
    - target: {fileID: -8679921383154817045, guid: 5f16a0101803e9a449bffac981e8edd6, type: 3}
      propertyPath: m_LocalRotation.y
      value: 0.7071068
      objectReference: {fileID: 0}
    - target: {fileID: -8679921383154817045, guid: 5f16a0101803e9a449bffac981e8edd6, type: 3}
      propertyPath: m_LocalRotation.z
      value: 0
      objectReference: {fileID: 0}
    - target: {fileID: -8679921383154817045, guid: 5f16a0101803e9a449bffac981e8edd6, type: 3}
      propertyPath: m_LocalEulerAnglesHint.x
      value: 0
      objectReference: {fileID: 0}
    - target: {fileID: -8679921383154817045, guid: 5f16a0101803e9a449bffac981e8edd6, type: 3}
      propertyPath: m_LocalEulerAnglesHint.y
      value: 90
      objectReference: {fileID: 0}
    - target: {fileID: -8679921383154817045, guid: 5f16a0101803e9a449bffac981e8edd6, type: 3}
      propertyPath: m_LocalEulerAnglesHint.z
      value: 0
      objectReference: {fileID: 0}
    - target: {fileID: -7511558181221131132, guid: 5f16a0101803e9a449bffac981e8edd6, type: 3}
      propertyPath: m_Materials.Array.data[0]
      value: 
      objectReference: {fileID: 2100000, guid: 7e77fc2bd345ba94893224530cb05748, type: 2}
    - target: {fileID: -7511558181221131132, guid: 5f16a0101803e9a449bffac981e8edd6, type: 3}
      propertyPath: m_SelectedEditorRenderState
      value: 2
      objectReference: {fileID: 0}
    - target: {fileID: 919132149155446097, guid: 5f16a0101803e9a449bffac981e8edd6, type: 3}
      propertyPath: m_Name
      value: Couch01 (1)
      objectReference: {fileID: 0}
    m_RemovedComponents: []
  m_SourcePrefab: {fileID: 100100000, guid: 5f16a0101803e9a449bffac981e8edd6, type: 3}
