%YAML 1.1
%TAG !u! tag:unity3d.com,2011:
--- !u!1001 &6200771486488608526
PrefabInstance:
  m_ObjectHideFlags: 0
  serializedVersion: 2
  m_Modification:
    m_TransformParent: {fileID: 0}
    m_Modifications:
    - target: {fileID: -8679921383154817045, guid: bca89d37b4c0a4644b1f43f2e4db7b25, type: 3}
      propertyPath: m_RootOrder
      value: 0
      objectReference: {fileID: 0}
    - target: {fileID: -8679921383154817045, guid: bca89d37b4c0a4644b1f43f2e4db7b25, type: 3}
      propertyPath: m_LocalPosition.x
      value: -12.291241
      objectReference: {fileID: 0}
    - target: {fileID: -8679921383154817045, guid: bca89d37b4c0a4644b1f43f2e4db7b25, type: 3}
      propertyPath: m_LocalPosition.y
      value: -9.327092
      objectReference: {fileID: 0}
    - target: {fileID: -8679921383154817045, guid: bca89d37b4c0a4644b1f43f2e4db7b25, type: 3}
      propertyPath: m_LocalPosition.z
      value: -15.700558
      objectReference: {fileID: 0}
    - target: {fileID: -8679921383154817045, guid: bca89d37b4c0a4644b1f43f2e4db7b25, type: 3}
      propertyPath: m_LocalRotation.w
      value: 0.7071068
      objectReference: {fileID: 0}
    - target: {fileID: -8679921383154817045, guid: bca89d37b4c0a4644b1f43f2e4db7b25, type: 3}
      propertyPath: m_LocalRotation.x
      value: 0
      objectReference: {fileID: 0}
    - target: {fileID: -8679921383154817045, guid: bca89d37b4c0a4644b1f43f2e4db7b25, type: 3}
      propertyPath: m_LocalRotation.y
      value: 0.7071068
      objectReference: {fileID: 0}
    - target: {fileID: -8679921383154817045, guid: bca89d37b4c0a4644b1f43f2e4db7b25, type: 3}
      propertyPath: m_LocalRotation.z
      value: 0
      objectReference: {fileID: 0}
    - target: {fileID: -8679921383154817045, guid: bca89d37b4c0a4644b1f43f2e4db7b25, type: 3}
      propertyPath: m_LocalEulerAnglesHint.x
      value: 0
      objectReference: {fileID: 0}
    - target: {fileID: -8679921383154817045, guid: bca89d37b4c0a4644b1f43f2e4db7b25, type: 3}
      propertyPath: m_LocalEulerAnglesHint.y
      value: 90
      objectReference: {fileID: 0}
    - target: {fileID: -8679921383154817045, guid: bca89d37b4c0a4644b1f43f2e4db7b25, type: 3}
      propertyPath: m_LocalEulerAnglesHint.z
      value: 0
      objectReference: {fileID: 0}
    - target: {fileID: -7511558181221131132, guid: bca89d37b4c0a4644b1f43f2e4db7b25, type: 3}
      propertyPath: m_Materials.Array.data[0]
      value: 
      objectReference: {fileID: 2100000, guid: 8999d88075a4dd74db0247143647e3af, type: 2}
    - target: {fileID: 919132149155446097, guid: bca89d37b4c0a4644b1f43f2e4db7b25, type: 3}
      propertyPath: m_Name
      value: Couch5 (1)
      objectReference: {fileID: 0}
    m_RemovedComponents: []
  m_SourcePrefab: {fileID: 100100000, guid: bca89d37b4c0a4644b1f43f2e4db7b25, type: 3}
