%YAML 1.1
%TAG !u! tag:unity3d.com,2011:
--- !u!1001 &2253195237628998339
PrefabInstance:
  m_ObjectHideFlags: 0
  serializedVersion: 2
  m_Modification:
    m_TransformParent: {fileID: 0}
    m_Modifications:
    - target: {fileID: -8679921383154817045, guid: 882c8d9c1c80a644b8ef871ddf40f206, type: 3}
      propertyPath: m_RootOrder
      value: 0
      objectReference: {fileID: 0}
    - target: {fileID: -8679921383154817045, guid: 882c8d9c1c80a644b8ef871ddf40f206, type: 3}
      propertyPath: m_LocalScale.x
      value: 1.2
      objectReference: {fileID: 0}
    - target: {fileID: -8679921383154817045, guid: 882c8d9c1c80a644b8ef871ddf40f206, type: 3}
      propertyPath: m_LocalScale.y
      value: 1.2
      objectReference: {fileID: 0}
    - target: {fileID: -8679921383154817045, guid: 882c8d9c1c80a644b8ef871ddf40f206, type: 3}
      propertyPath: m_LocalScale.z
      value: 1.2
      objectReference: {fileID: 0}
    - target: {fileID: -8679921383154817045, guid: 882c8d9c1c80a644b8ef871ddf40f206, type: 3}
      propertyPath: m_LocalPosition.x
      value: -12.301239
      objectReference: {fileID: 0}
    - target: {fileID: -8679921383154817045, guid: 882c8d9c1c80a644b8ef871ddf40f206, type: 3}
      propertyPath: m_LocalPosition.y
      value: -9.327092
      objectReference: {fileID: 0}
    - target: {fileID: -8679921383154817045, guid: 882c8d9c1c80a644b8ef871ddf40f206, type: 3}
      propertyPath: m_LocalPosition.z
      value: -14.071558
      objectReference: {fileID: 0}
    - target: {fileID: -8679921383154817045, guid: 882c8d9c1c80a644b8ef871ddf40f206, type: 3}
      propertyPath: m_LocalRotation.w
      value: 0.7071068
      objectReference: {fileID: 0}
    - target: {fileID: -8679921383154817045, guid: 882c8d9c1c80a644b8ef871ddf40f206, type: 3}
      propertyPath: m_LocalRotation.x
      value: 0
      objectReference: {fileID: 0}
    - target: {fileID: -8679921383154817045, guid: 882c8d9c1c80a644b8ef871ddf40f206, type: 3}
      propertyPath: m_LocalRotation.y
      value: -0.7071068
      objectReference: {fileID: 0}
    - target: {fileID: -8679921383154817045, guid: 882c8d9c1c80a644b8ef871ddf40f206, type: 3}
      propertyPath: m_LocalRotation.z
      value: 0
      objectReference: {fileID: 0}
    - target: {fileID: -8679921383154817045, guid: 882c8d9c1c80a644b8ef871ddf40f206, type: 3}
      propertyPath: m_LocalEulerAnglesHint.x
      value: 0
      objectReference: {fileID: 0}
    - target: {fileID: -8679921383154817045, guid: 882c8d9c1c80a644b8ef871ddf40f206, type: 3}
      propertyPath: m_LocalEulerAnglesHint.y
      value: 0
      objectReference: {fileID: 0}
    - target: {fileID: -8679921383154817045, guid: 882c8d9c1c80a644b8ef871ddf40f206, type: 3}
      propertyPath: m_LocalEulerAnglesHint.z
      value: 0
      objectReference: {fileID: 0}
    - target: {fileID: -7511558181221131132, guid: 882c8d9c1c80a644b8ef871ddf40f206, type: 3}
      propertyPath: m_Materials.Array.data[0]
      value: 
      objectReference: {fileID: 2100000, guid: 8999d88075a4dd74db0247143647e3af, type: 2}
    - target: {fileID: -7511558181221131132, guid: 882c8d9c1c80a644b8ef871ddf40f206, type: 3}
      propertyPath: m_SelectedEditorRenderState
      value: 2
      objectReference: {fileID: 0}
    - target: {fileID: 919132149155446097, guid: 882c8d9c1c80a644b8ef871ddf40f206, type: 3}
      propertyPath: m_Name
      value: Plant1 (1)
      objectReference: {fileID: 0}
    m_RemovedComponents: []
  m_SourcePrefab: {fileID: 100100000, guid: 882c8d9c1c80a644b8ef871ddf40f206, type: 3}
